{
    "sizes": [
        {
            "slug": "s-1vcpu-512mb-10gb",
            "memory": 512,
            "vcpus": 1,
            "disk": 10,
            "transfer": 0.5,
            "price_monthly": 4.0,
            "price_hourly": 0.00595,
            "regions": [
                "ams3",
                "fra1",
                "nyc1",
                "sfo3",
                "sgp1",
                "syd1"
            ],
            "available": true,
            "description": "Basic",
            "networking_througput": 2000
        },
        {
            "slug": "s-1vcpu-1gb",
            "memory": 1024,
            "vcpus": 1,
            "disk": 25,
            "transfer": 1.0,
            "price_monthly": 6.0,
            "price_hourly": 0.00893,
            "regions": [
                "ams3",
                "blr1",
                "fra1",
                "lon1",
                "nyc1",
                "nyc3",
                "sfo2",
                "sfo3",
                "sgp1",
                "syd1",
                "tor1"
            ],
            "available": true,
            "description": "Basic",
            "networking_througput": 2000
        },
        {
            "slug": "s-1vcpu-1gb-amd",
            "memory": 1024,
            "vcpus": 1,
            "disk": 25,
            "transfer": 1.0,
            "price_monthly": 7.0,
            "price_hourly": 0.01042,
            "regions": [
                "ams3",
                "blr1",
                "fra1",
                "lon1",
                "nyc1",
                "nyc3",
                "sfo3",
                "sgp1",
                "syd1",
                "tor1"
            ],
            "available": true,
            "description": "Basic AMD",
            "networking_througput": 2000
        },
        {
            "slug": "s-1vcpu-1gb-intel",
            "memory": 1024,
            "vcpus": 1,
            "disk": 25,
            "transfer": 1.0,
            "price_monthly": 7.0,
            "price_hourly": 0.01042,
            "regions": [
                "ams3",
                "blr1",
                "fra1",
                "lon1",
                "nyc1",
                "nyc3",
                "sfo3",
                "sgp1",
                "syd1",
                "tor1"
            ],
            "available": true,
            "description": "Basic Intel",
            "networking_througput": 2000
        },
        {
            "slug": "s-1vcpu-1gb-35gb-intel",
            "memory": 1024,
            "vcpus": 1,
            "disk": 35,
            "transfer": 1.0,
            "price_monthly": 8.0,
            "price_hourly": 0.0119,
            "regions": [
                "ams3",
                "blr1",
                "fra1",
                "lon1",
                "nyc1",
                "nyc3",
                "sfo3",
                "sgp1",
                "syd1",
                "tor1"
            ],
            "available": true,
            "description": "Basic Intel",
            "networking_througput": 2000
        },
        {
            "slug": "s-1vcpu-2gb",
            "memory": 2048,
            "vcpus": 1,
            "disk": 50,
            "transfer": 2.0,
            "price_monthly": 12.0,
            "price_hourly": 0.01786,
            "regions": [
                "ams3",
                "blr1",
                "fra1",
                "lon1",
                "nyc1",
                "nyc3",
                "sfo2",
                "sfo3",
                "sgp1",
                "syd1",
                "tor1"
            ],
            "available": true,
            "description": "Basic",
            "networking_througput": 2000
        },
        {
            "slug": "s-1vcpu-2gb-amd",
            "memory": 2048,
            "vcpus": 1,
            "disk": 50,
            "transfer": 2.0,
            "price_monthly": 14.0,
            "price_hourly": 0.02083,
            "regions": [
                "ams3",
                "blr1",
                "fra1",
                "lon1",
                "nyc1",
                "nyc3",
                "sfo3",
                "sgp1",
                "syd1",
                "tor1"
            ],
            "available": true,
            "description": "Basic AMD",
            "networking_througput": 2000
        },
        {
            "slug": "s-1vcpu-2gb-intel",
            "memory": 2048,
            "vcpus": 1,
            "disk": 50,
            "transfer": 2.0,
            "price_monthly": 14.0,
            "price_hourly": 0.02083,
            "regions": [
                "ams3",
                "blr1",
                "fra1",
                "lon1",
                "nyc1",
                "nyc3",
                "sfo3",
                "sgp1",
                "syd1",
                "tor1"
            ],
            "available": true,
            "description": "Basic Intel",
            "networking_througput": 2000
        },
        {
            "slug": "s-1vcpu-2gb-70gb-intel",
            "memory": 2048,
            "vcpus": 1,
            "disk": 70,
            "transfer": 2.0,
            "price_monthly": 16.0,
            "price_hourly": 0.02381,
            "regions": [
                "ams3",
                "blr1",
                "fra1",
                "lon1",
                "nyc1",
                "nyc3",
                "sfo3",
                "sgp1",
                "syd1",
                "tor1"
            ],
            "available": true,
            "description": "Basic Intel",
            "networking_througput": 2000
        },
        {
            "slug": "s-2vcpu-2gb",
            "memory": 2048,
            "vcpus": 2,
            "disk": 60,
            "transfer": 3.0,
            "price_monthly": 18.0,
            "price_hourly": 0.02679,
            "regions": [
                "ams3",
                "blr1",
                "fra1",
                "lon1",
                "nyc1",
                "nyc3",
                "sfo2",
                "sfo3",
                "sgp1",
                "syd1",
                "tor1"
            ],
            "available": true,
            "description": "Basic",
            "networking_througput": 2000
        },
        {
            "slug": "s-2vcpu-2gb-amd",
            "memory": 2048,
            "vcpus": 2,
            "disk": 60,
            "transfer": 3.0,
            "price_monthly": 21.0,
            "price_hourly": 0.03125,
            "regions": [
                "ams3",
                "blr1",
                "fra1",
                "lon1",
                "nyc1",
                "nyc3",
                "sfo3",
                "sgp1",
                "syd1",
                "tor1"
            ],
            "available": true,
            "description": "Basic AMD",
            "networking_througput": 2000
        },
        {
            "slug": "s-2vcpu-2gb-intel",
            "memory": 2048,
            "vcpus": 2,
            "disk": 60,
            "transfer": 3.0,
            "price_monthly": 21.0,
            "price_hourly": 0.03125,
            "regions": [
                "ams3",
                "blr1",
                "fra1",
                "lon1",
                "nyc1",
                "nyc3",
                "sfo3",
                "sgp1",
                "syd1",
                "tor1"
            ],
            "available": true,
            "description": "Basic Intel",
            "networking_througput": 2000
        },
        {
            "slug": "s-2vcpu-2gb-90gb-intel",
            "memory": 2048,
            "vcpus": 2,
            "disk": 90,
            "transfer": 3.0,
            "price_monthly": 24.0,
            "price_hourly": 0.03571,
            "regions": [
                "ams3",
                "blr1",
                "fra1",
                "lon1",
                "nyc1",
                "nyc3",
                "sfo3",
                "sgp1",
                "syd1",
                "tor1"
            ],
            "available": true,
            "description": "Basic Intel",
            "networking_througput": 2000
        },
        {
            "slug": "s-2vcpu-4gb",
            "memory": 4096,
            "vcpus": 2,
            "disk": 80,
            "transfer": 4.0,
            "price_monthly": 24.0,
            "price_hourly": 0.03571,
            "regions": [
                "ams3",
                "blr1",
                "fra1",
                "lon1",
                "nyc1",
                "nyc3",
                "sfo2",
                "sfo3",
                "sgp1",
                "syd1",
                "tor1"
            ],
            "available": true,
            "description": "Basic",
            "networking_througput": 2000
        },
        {
            "slug": "s-2vcpu-4gb-amd",
            "memory": 4096,
            "vcpus": 2,
            "disk": 80,
            "transfer": 4.0,
            "price_monthly": 28.0,
            "price_hourly": 0.04167,
            "regions": [
                "ams3",
                "blr1",
                "fra1",
                "lon1",
                "nyc1",
                "nyc3",
                "sfo3",
                "sgp1",
                "syd1",
                "tor1"
            ],
            "available": true,
            "description": "Basic AMD",
            "networking_througput": 2000
        },
        {
            "slug": "s-2vcpu-4gb-intel",
            "memory": 4096,
            "vcpus": 2,
            "disk": 80,
            "transfer": 4.0,
            "price_monthly": 28.0,
            "price_hourly": 0.04167,
            "regions": [
                "ams3",
                "blr1",
                "fra1",
                "lon1",
                "nyc1",
                "nyc3",
                "sfo3",
                "sgp1",
                "syd1",
                "tor1"
            ],
            "available": true,
            "description": "Basic Intel",
            "networking_througput": 2000
        },
        {
            "slug": "s-2vcpu-4gb-120gb-intel",
            "memory": 4096,
            "vcpus": 2,
            "disk": 120,
            "transfer": 4.0,
            "price_monthly": 32.0,
            "price_hourly": 0.04762,
            "regions": [
                "ams3",
                "blr1",
                "fra1",
                "lon1",
                "nyc1",
                "nyc3",
                "sfo3",
                "sgp1",
                "syd1",
                "tor1"
            ],
            "available": true,
            "description": "Basic Intel",
            "networking_througput": 2000
        },
        {
            "slug": "s-2vcpu-8gb-amd",
            "memory": 8192,
            "vcpus": 2,
            "disk": 100,
            "transfer": 5.0,
            "price_monthly": 42.0,
            "price_hourly": 0.0625,
            "regions": [
                "ams3",
                "blr1",
                "fra1",
                "nyc3",
                "sfo3",
                "syd1",
                "tor1"
            ],
            "available": true,
            "description": "Basic AMD",
            "networking_througput": 2000
        },
        {
            "slug": "s-2vcpu-8gb-160gb-intel",
            "memory": 8192,
            "vcpus": 2,
            "disk": 160,
            "transfer": 5.0,
            "price_monthly": 48.0,
            "price_hourly": 0.07143,
            "regions": [
                "ams3",
                "blr1",
                "fra1",
                "nyc3",
                "sfo3",
                "syd1",
                "tor1"
            ],
            "available": true,
            "description": "Basic Intel",
            "networking_througput": 2000
        },
        {
            "slug": "s-4vcpu-8gb",
            "memory": 8192,
            "vcpus": 4,
            "disk": 160,
            "transfer": 5.0,
            "price_monthly": 48.0,
            "price_hourly": 0.07143,
            "regions": [
                "ams3",
                "blr1",
                "fra1",
                "lon1",
                "nyc1",
                "nyc3",
                "sfo2",
                "sfo3",
                "sgp1",
                "syd1",
                "tor1"
            ],
            "available": true,
            "description": "Basic",
            "networking_througput": 2000
        }
    ],
    "links": {
        "pages": {
            "next": "https://api.digitalocean.com/v2/sizes?page=2\u0026per_page=20",
            "last": "https://api.digitalocean.com/v2/sizes?page=2\u0026per_page=20"
        }
    },
    "meta": {
        "total": 22
    }
}